---
http_interactions:
- request:
    method: get
    uri: https://example.com/rest_api/v1/releases/?active=true
    body:
      encoding: US-ASCII
      string: ''
    headers:
      Accept:
      - application/json
      Content-Type:
      - application/json
      User-Agent:
      - Faraday v0.9.2
  response:
    status:
      code: 200
      message: 
    headers:
      date:
      - Wed, 27 Jul 2016 04:55:19 GMT
      server:
      - Apache/2.4.6 (Red Hat Enterprise Linux) OpenSSL/1.0.1e-fips mod_auth_kerb/5.4
        mod_wsgi/3.4 Python/2.7.5
      expires:
      - Wed, 27 Jul 2016 04:55:50 GMT
      vary:
      - Accept,Cookie
      last-modified:
      - Thu, 21 Jul 2016 12:24:12 GMT
      allow:
      - GET, POST, PUT, PATCH, HEAD, OPTIONS
      cache-control:
      - max-age=30
      x-frame-options:
      - SAMEORIGIN
      connection:
      - close
      transfer-encoding:
      - chunked
      content-type:
      - application/json
    body:
      encoding: UTF-8
      string: '{"count":54,"next":"https://pdc.host.dev.eng.pek2.redhat.com/rest_api/v1/releases/?active=true&page=2","previous":null,"results":[{"release_id":"atomicopenshift-3.2","short":"atomicopenshift","version":"3.2","name":"AtomicOpenShift","base_product":null,"active":true,"product_version":"atomicopenshift-3","release_type":"ga","compose_set":["AtomicOpenShift-3.2-20160519.4","AtomicOpenShift-3.2-20160519.6","AtomicOpenShift-3.2-20160520.3","AtomicOpenShift-3.2-20160520.4","AtomicOpenShift-3.2-20160520.6","AtomicOpenShift-3.2-20160520.7","AtomicOpenShift-3.2-20160530.2"],"integrated_with":null,"bugzilla":null,"dist_git":null,"brew":null,"product_pages":null,"errata":null,"sigkey":null,"allow_buildroot_push":true,"allowed_debuginfo_services":[],"allowed_push_targets":[]},{"release_id":"cloudforms-4.1","short":"cloudforms","version":"4.1","name":"CloudForms","base_product":null,"active":true,"product_version":"cloudforms-4","release_type":"ga","compose_set":["CloudForms-4.1-20160520.8","CloudForms-4.1-20160520.9","CloudForms-4.1-20160530.1","CloudForms-4.1-20160530.2"],"integrated_with":null,"bugzilla":null,"dist_git":null,"brew":null,"product_pages":null,"errata":null,"sigkey":null,"allow_buildroot_push":true,"allowed_debuginfo_services":[],"allowed_push_targets":[]},{"release_id":"dotnet-1.0@rhel-7","short":"dotnet","version":"1.0","name":"dotNET
        on RHEL","base_product":"rhel-7","active":true,"product_version":"dotnet-1","release_type":"ga","compose_set":["dotNET-1.0-RHEL-7-20160601.0"],"integrated_with":null,"bugzilla":null,"dist_git":null,"brew":null,"product_pages":null,"errata":null,"sigkey":null,"allow_buildroot_push":true,"allowed_debuginfo_services":[],"allowed_push_targets":[]},{"release_id":"dp-1.0","short":"dp","version":"1.0","name":"Dummy
        Product","base_product":null,"active":true,"product_version":null,"release_type":"ga","compose_set":[],"integrated_with":null,"bugzilla":null,"dist_git":null,"brew":null,"product_pages":null,"errata":null,"sigkey":null,"allow_buildroot_push":true,"allowed_debuginfo_services":[],"allowed_push_targets":[]},{"release_id":"f-20","short":"f","version":"20","name":"Red
        Hat Enterprise Linux","base_product":null,"active":true,"product_version":null,"release_type":"ga","compose_set":["RHEL-7.0-20140507.1"],"integrated_with":null,"bugzilla":null,"dist_git":null,"brew":null,"product_pages":null,"errata":null,"sigkey":null,"allow_buildroot_push":true,"allowed_debuginfo_services":[],"allowed_push_targets":[]},{"release_id":"f-25","short":"f","version":"25","name":"Fedora","base_product":null,"active":true,"product_version":null,"release_type":"ga","compose_set":[],"integrated_with":null,"bugzilla":null,"dist_git":null,"brew":null,"product_pages":null,"errata":{"product_version":"production_version_1"},"sigkey":null,"allow_buildroot_push":true,"allowed_debuginfo_services":[],"allowed_push_targets":[]},{"release_id":"f-26","short":"f","version":"26","name":"Fedora","base_product":null,"active":true,"product_version":null,"release_type":"ga","compose_set":[],"integrated_with":null,"bugzilla":null,"dist_git":null,"brew":null,"product_pages":null,"errata":{"product_version":"production_version_1"},"sigkey":null,"allow_buildroot_push":true,"allowed_debuginfo_services":[],"allowed_push_targets":[]},{"release_id":"f-27","short":"f","version":"27","name":"Fedora","base_product":null,"active":true,"product_version":null,"release_type":"ga","compose_set":[],"integrated_with":null,"bugzilla":null,"dist_git":null,"brew":null,"product_pages":null,"errata":{"product_version":"production_version_1"},"sigkey":null,"allow_buildroot_push":true,"allowed_debuginfo_services":[],"allowed_push_targets":[]},{"release_id":"myproduct-2.1","short":"myproduct","version":"2.1","name":"MyProduct","base_product":null,"active":true,"product_version":"myproduct-2","release_type":"ga","compose_set":["MyProduct-2.1-20160519.9","MyProduct-2.1-20160519.10"],"integrated_with":null,"bugzilla":null,"dist_git":null,"brew":null,"product_pages":null,"errata":null,"sigkey":null,"allow_buildroot_push":true,"allowed_debuginfo_services":[],"allowed_push_targets":[]},{"release_id":"openstack-9.0@rhel-7","short":"openstack","version":"9.0","name":"OpenStack","base_product":"rhel-7","active":true,"product_version":"openstack-9","release_type":"ga","compose_set":["OpenStack-9.0-RHEL-7-20160530.5"],"integrated_with":null,"bugzilla":null,"dist_git":null,"brew":null,"product_pages":null,"errata":null,"sigkey":null,"allow_buildroot_push":true,"allowed_debuginfo_services":[],"allowed_push_targets":[]},{"release_id":"rhel-7.0","short":"rhel","version":"7.0","name":"Red
        Hat Enterprise Linux","base_product":null,"active":true,"product_version":"rhel-7","release_type":"ga","compose_set":["RHEL-7.0-20140507.0"],"integrated_with":null,"bugzilla":null,"dist_git":null,"brew":null,"product_pages":null,"errata":null,"sigkey":null,"allow_buildroot_push":true,"allowed_debuginfo_services":[],"allowed_push_targets":[]},{"release_id":"rhel-7.0-updates","short":"rhel","version":"7.0","name":"Red
        Hat Enterprise Linux","base_product":null,"active":true,"product_version":"rhel-7","release_type":"updates","compose_set":["RHEL-7.0-20140507.0"],"integrated_with":null,"bugzilla":null,"dist_git":null,"brew":null,"product_pages":null,"errata":null,"sigkey":null,"allow_buildroot_push":true,"allowed_debuginfo_services":[],"allowed_push_targets":[]},{"release_id":"rhel-7.1","short":"rhel","version":"7.1","name":"Red
        Hat Enterprise Linux","base_product":null,"active":true,"product_version":"rhel-7","release_type":"ga","compose_set":["RHEL-7.1-20140507.2","RHEL-7.1-20140708.n.0","RHEL-7.1-20150219.1"],"integrated_with":null,"bugzilla":null,"dist_git":null,"brew":null,"product_pages":null,"errata":null,"sigkey":null,"allow_buildroot_push":true,"allowed_debuginfo_services":[],"allowed_push_targets":[]},{"release_id":"rhel-7.1-updates","short":"rhel","version":"7.1","name":"Red
        Hat Enterprise Linux","base_product":null,"active":true,"product_version":"rhel-7","release_type":"updates","compose_set":["RHEL-7.1-20150219.1"],"integrated_with":null,"bugzilla":null,"dist_git":null,"brew":null,"product_pages":null,"errata":null,"sigkey":null,"allow_buildroot_push":true,"allowed_debuginfo_services":[],"allowed_push_targets":[]},{"release_id":"rhel-7.1-eus","short":"rhel","version":"7.1","name":"Red
        Hat Enterprise Linux","base_product":null,"active":true,"product_version":"rhel-7","release_type":"eus","compose_set":["RHEL-7.1-20150219.1"],"integrated_with":null,"bugzilla":null,"dist_git":null,"brew":null,"product_pages":null,"errata":null,"sigkey":null,"allow_buildroot_push":true,"allowed_debuginfo_services":[],"allowed_push_targets":[]},{"release_id":"rhel-7.2","short":"rhel","version":"7.2","name":"rhel7.2","base_product":null,"active":true,"product_version":null,"release_type":"ga","compose_set":[],"integrated_with":null,"bugzilla":null,"dist_git":null,"brew":null,"product_pages":null,"errata":null,"sigkey":null,"allow_buildroot_push":true,"allowed_debuginfo_services":[],"allowed_push_targets":[]},{"release_id":"rhel-le-7.1","short":"rhel-le","version":"7.1","name":"Red
        Hat Enterprise Linux - LE","base_product":null,"active":true,"product_version":"rhel-le-7","release_type":"ga","compose_set":["RHEL-LE-7.1-20150219.1"],"integrated_with":null,"bugzilla":null,"dist_git":null,"brew":null,"product_pages":null,"errata":null,"sigkey":null,"allow_buildroot_push":true,"allowed_debuginfo_services":[],"allowed_push_targets":[]},{"release_id":"rhscl-1.2@rhel-6","short":"rhscl","version":"1.2","name":"Red
        Hat Software Collections","base_product":"rhel-6","active":true,"product_version":"rhscl-1","release_type":"ga","compose_set":["RHSCL-1.2-RHEL-6-20140814.0"],"integrated_with":null,"bugzilla":null,"dist_git":null,"brew":null,"product_pages":null,"errata":null,"sigkey":null,"allow_buildroot_push":true,"allowed_debuginfo_services":[],"allowed_push_targets":[]},{"release_id":"rhscl-1.2@rhel-7","short":"rhscl","version":"1.2","name":"Red
        Hat Software Collections","base_product":"rhel-7","active":true,"product_version":"rhscl-1","release_type":"ga","compose_set":["RHSCL-1.2-RHEL-7-20140814.0"],"integrated_with":null,"bugzilla":null,"dist_git":null,"brew":null,"product_pages":null,"errata":null,"sigkey":null,"allow_buildroot_push":true,"allowed_debuginfo_services":[],"allowed_push_targets":[]},{"release_id":"rhscl-2.2@rhel-6.6-eus","short":"rhscl","version":"2.2","name":"Red
        Hat Software Collections","base_product":"rhel-6.6-eus","active":true,"product_version":"rhscl-2","release_type":"ga","compose_set":[],"integrated_with":null,"bugzilla":null,"dist_git":null,"brew":null,"product_pages":null,"errata":null,"sigkey":null,"allow_buildroot_push":true,"allowed_debuginfo_services":[],"allowed_push_targets":[]}]}'
    http_version: 
  recorded_at: Thu, 31 Dec 2015 14:00:02 GMT
- request:
    method: get
    uri: https://example.com/rest_api/v1/releases/?active=true&page=2
    body:
      encoding: US-ASCII
      string: ''
    headers:
      Accept:
      - application/json
      Content-Type:
      - application/json
      User-Agent:
      - Faraday v0.9.2
  response:
    status:
      code: 200
      message: 
    headers:
      date:
      - Wed, 27 Jul 2016 04:55:21 GMT
      server:
      - Apache/2.4.6 (Red Hat Enterprise Linux) OpenSSL/1.0.1e-fips mod_auth_kerb/5.4
        mod_wsgi/3.4 Python/2.7.5
      expires:
      - Wed, 27 Jul 2016 04:55:52 GMT
      vary:
      - Accept,Cookie
      last-modified:
      - Thu, 21 Jul 2016 12:24:12 GMT
      allow:
      - GET, POST, PUT, PATCH, HEAD, OPTIONS
      cache-control:
      - max-age=30
      x-frame-options:
      - SAMEORIGIN
      connection:
      - close
      transfer-encoding:
      - chunked
      content-type:
      - application/json
    body:
      encoding: UTF-8
      string: '{"count":54,"next":"https://pdc.host.dev.eng.pek2.redhat.com/rest_api/v1/releases/?active=true&page=3","previous":"https://pdc.host.dev.eng.pek2.redhat.com/rest_api/v1/releases/?active=true","results":[{"release_id":"rhscl-2.3@rhel-6","short":"rhscl","version":"2.3","name":"Red
        Hat Software Collections","base_product":"rhel-6","active":true,"product_version":"rhscl-1","release_type":"ga","compose_set":[],"integrated_with":null,"bugzilla":null,"dist_git":null,"brew":null,"product_pages":null,"errata":null,"sigkey":null,"allow_buildroot_push":true,"allowed_debuginfo_services":[],"allowed_push_targets":[]},{"release_id":"rt-7.1@rhel-7","short":"rt","version":"7.1","name":"RT","base_product":"rhel-7","active":true,"product_version":"rt-7","release_type":"ga","compose_set":["RHEL-7.1-20150219.1"],"integrated_with":"rhel-7.1","bugzilla":null,"dist_git":null,"brew":null,"product_pages":null,"errata":null,"sigkey":null,"allow_buildroot_push":true,"allowed_debuginfo_services":[],"allowed_push_targets":[]},{"release_id":"sap-2.3@dp-1","short":"sap","version":"2.3","name":"SAP","base_product":"dp-1","active":true,"product_version":"sap-2","release_type":"ga","compose_set":[],"integrated_with":"dp-1.0","bugzilla":null,"dist_git":null,"brew":null,"product_pages":null,"errata":null,"sigkey":null,"allow_buildroot_push":true,"allowed_debuginfo_services":[],"allowed_push_targets":[]},{"release_id":"sap-7.0@rhel-7","short":"sap","version":"7.0","name":"SAP","base_product":"rhel-7","active":true,"product_version":"sap-7","release_type":"ga","compose_set":["RHEL-7.0-20140507.0"],"integrated_with":"rhel-7.0","bugzilla":null,"dist_git":null,"brew":null,"product_pages":null,"errata":null,"sigkey":null,"allow_buildroot_push":true,"allowed_debuginfo_services":[],"allowed_push_targets":[]},{"release_id":"sap-7.0@f-20","short":"sap","version":"7.0","name":"SAP","base_product":"f-20","active":true,"product_version":"sap-7","release_type":"ga","compose_set":["RHEL-7.0-20140507.1"],"integrated_with":"f-20","bugzilla":null,"dist_git":null,"brew":null,"product_pages":null,"errata":null,"sigkey":null,"allow_buildroot_push":true,"allowed_debuginfo_services":[],"allowed_push_targets":[]},{"release_id":"sap-7.1@rhel-7","short":"sap","version":"7.1","name":"SAP","base_product":"rhel-7","active":true,"product_version":"sap-7","release_type":"ga","compose_set":["RHEL-7.1-20140507.2","RHEL-7.1-20140708.n.0","RHEL-7.1-20150219.1"],"integrated_with":"rhel-7.1","bugzilla":null,"dist_git":null,"brew":null,"product_pages":null,"errata":null,"sigkey":null,"allow_buildroot_push":true,"allowed_debuginfo_services":[],"allowed_push_targets":[]},{"release_id":"satellite-6.0.4@rhel-5","short":"satellite","version":"6.0.4","name":"Red
        Hat Satellite","base_product":"rhel-5","active":true,"product_version":"satellite-6.0","release_type":"ga","compose_set":["Satellite-6.0.4-RHEL-5-20140909.0"],"integrated_with":null,"bugzilla":null,"dist_git":null,"brew":null,"product_pages":null,"errata":null,"sigkey":null,"allow_buildroot_push":true,"allowed_debuginfo_services":[],"allowed_push_targets":[]},{"release_id":"satellite-6.0.4@rhel-6","short":"satellite","version":"6.0.4","name":"Red
        Hat Satellite","base_product":"rhel-6","active":true,"product_version":"satellite-6.0","release_type":"ga","compose_set":["Satellite-6.0.4-RHEL-6-20140908.0"],"integrated_with":null,"bugzilla":null,"dist_git":null,"brew":null,"product_pages":null,"errata":null,"sigkey":null,"allow_buildroot_push":true,"allowed_debuginfo_services":[],"allowed_push_targets":[]},{"release_id":"satellite-6.0.4@rhel-7","short":"satellite","version":"6.0.4","name":"Red
        Hat Satellite","base_product":"rhel-7","active":true,"product_version":"satellite-6.0","release_type":"ga","compose_set":["Satellite-6.0.4-RHEL-7-20140908.0"],"integrated_with":null,"bugzilla":null,"dist_git":null,"brew":null,"product_pages":null,"errata":null,"sigkey":null,"allow_buildroot_push":true,"allowed_debuginfo_services":[],"allowed_push_targets":[]},{"release_id":"satellite-6.2@rhel-6","short":"satellite","version":"6.2","name":"Red
        Hat Satellite","base_product":"rhel-6","active":true,"product_version":"satellite-6","release_type":"ga","compose_set":[],"integrated_with":null,"bugzilla":null,"dist_git":null,"brew":null,"product_pages":null,"errata":null,"sigkey":null,"allow_buildroot_push":true,"allowed_debuginfo_services":[],"allowed_push_targets":[]},{"release_id":"satellite-6.2@rhel-7","short":"satellite","version":"6.2","name":"Red
        Hat Satellite","base_product":"rhel-7","active":true,"product_version":"satellite-6","release_type":"ga","compose_set":[],"integrated_with":null,"bugzilla":null,"dist_git":null,"brew":null,"product_pages":null,"errata":null,"sigkey":null,"allow_buildroot_push":true,"allowed_debuginfo_services":[],"allowed_push_targets":[]},{"release_id":"satellite-6.2-updates@rhel-6","short":"satellite","version":"6.2","name":"Red
        Hat Satellite","base_product":"rhel-6","active":true,"product_version":"satellite-6","release_type":"updates","compose_set":[],"integrated_with":null,"bugzilla":null,"dist_git":null,"brew":{"default_target":null,"allowed_tags":["satellite-6.2.0-rhel-6"]},"product_pages":null,"errata":null,"sigkey":null,"allow_buildroot_push":true,"allowed_debuginfo_services":[],"allowed_push_targets":[]},{"release_id":"satellite-6.2-updates@rhel-7","short":"satellite","version":"6.2","name":"Red
        Hat Satellite","base_product":"rhel-7","active":true,"product_version":"satellite-6","release_type":"updates","compose_set":[],"integrated_with":null,"bugzilla":null,"dist_git":null,"brew":{"default_target":null,"allowed_tags":["satellite-6.2.0-rhel-7"]},"product_pages":null,"errata":null,"sigkey":null,"allow_buildroot_push":true,"allowed_debuginfo_services":[],"allowed_push_targets":[]},{"release_id":"sattools-6.2@rhel-6.2-aus","short":"sattools","version":"6.2","name":"Red
        Hat Satellite Tools","base_product":"rhel-6.2-aus","active":true,"product_version":"sattools-6","release_type":"ga","compose_set":[],"integrated_with":null,"bugzilla":null,"dist_git":null,"brew":null,"product_pages":null,"errata":null,"sigkey":null,"allow_buildroot_push":true,"allowed_debuginfo_services":[],"allowed_push_targets":[]},{"release_id":"sattools-6.2@rhel-5","short":"sattools","version":"6.2","name":"Red
        Hat Satellite Tools","base_product":"rhel-5","active":true,"product_version":"sattools-6","release_type":"ga","compose_set":[],"integrated_with":null,"bugzilla":null,"dist_git":null,"brew":null,"product_pages":null,"errata":null,"sigkey":null,"allow_buildroot_push":true,"allowed_debuginfo_services":[],"allowed_push_targets":[]},{"release_id":"sattools-6.2@rhel-5.6-aus","short":"sattools","version":"6.2","name":"Red
        Hat Satellite Tools","base_product":"rhel-5.6-aus","active":true,"product_version":"sattools-6","release_type":"ga","compose_set":[],"integrated_with":null,"bugzilla":null,"dist_git":null,"brew":null,"product_pages":null,"errata":null,"sigkey":null,"allow_buildroot_push":true,"allowed_debuginfo_services":[],"allowed_push_targets":[]},{"release_id":"sattools-6.2@rhel-5.9-aus","short":"sattools","version":"6.2","name":"Red
        Hat Satellite Tools","base_product":"rhel-5.9-aus","active":true,"product_version":"sattools-6","release_type":"ga","compose_set":[],"integrated_with":null,"bugzilla":null,"dist_git":null,"brew":null,"product_pages":null,"errata":null,"sigkey":null,"allow_buildroot_push":true,"allowed_debuginfo_services":[],"allowed_push_targets":[]},{"release_id":"sattools-6.2@rhel-6","short":"sattools","version":"6.2","name":"Red
        Hat Satellite Tools","base_product":"rhel-6","active":true,"product_version":"sattools-6","release_type":"ga","compose_set":[],"integrated_with":null,"bugzilla":null,"dist_git":null,"brew":null,"product_pages":null,"errata":null,"sigkey":null,"allow_buildroot_push":true,"allowed_debuginfo_services":[],"allowed_push_targets":[]},{"release_id":"sattools-6.2@rhel-6.4-aus","short":"sattools","version":"6.2","name":"Red
        Hat Satellite Tools","base_product":"rhel-6.4-aus","active":true,"product_version":"sattools-6","release_type":"ga","compose_set":[],"integrated_with":null,"bugzilla":null,"dist_git":null,"brew":null,"product_pages":null,"errata":null,"sigkey":null,"allow_buildroot_push":true,"allowed_debuginfo_services":[],"allowed_push_targets":[]},{"release_id":"sattools-6.2@rhel-6.5-aus","short":"sattools","version":"6.2","name":"Red
        Hat Satellite Tools","base_product":"rhel-6.5-aus","active":true,"product_version":"sattools-6","release_type":"ga","compose_set":[],"integrated_with":null,"bugzilla":null,"dist_git":null,"brew":null,"product_pages":null,"errata":null,"sigkey":null,"allow_buildroot_push":true,"allowed_debuginfo_services":[],"allowed_push_targets":[]}]}'
    http_version: 
  recorded_at: Thu, 31 Dec 2015 14:00:04 GMT
- request:
    method: get
    uri: https://example.com/rest_api/v1/releases/?active=true&page=3
    body:
      encoding: US-ASCII
      string: ''
    headers:
      Accept:
      - application/json
      Content-Type:
      - application/json
      User-Agent:
      - Faraday v0.9.2
  response:
    status:
      code: 200
      message: 
    headers:
      date:
      - Wed, 27 Jul 2016 04:55:23 GMT
      server:
      - Apache/2.4.6 (Red Hat Enterprise Linux) OpenSSL/1.0.1e-fips mod_auth_kerb/5.4
        mod_wsgi/3.4 Python/2.7.5
      expires:
      - Wed, 27 Jul 2016 04:55:54 GMT
      vary:
      - Accept,Cookie
      last-modified:
      - Thu, 21 Jul 2016 12:24:12 GMT
      allow:
      - GET, POST, PUT, PATCH, HEAD, OPTIONS
      cache-control:
      - max-age=30
      x-frame-options:
      - SAMEORIGIN
      connection:
      - close
      transfer-encoding:
      - chunked
      content-type:
      - application/json
    body:
      encoding: UTF-8
      string: '{"count":54,"next":null,"previous":"https://pdc.host.dev.eng.pek2.redhat.com/rest_api/v1/releases/?active=true&page=2","results":[{"release_id":"sattools-6.2@rhel-6.6-eus","short":"sattools","version":"6.2","name":"Red
        Hat Satellite Tools","base_product":"rhel-6.6-eus","active":true,"product_version":"sattools-6","release_type":"ga","compose_set":[],"integrated_with":null,"bugzilla":null,"dist_git":null,"brew":null,"product_pages":null,"errata":null,"sigkey":null,"allow_buildroot_push":true,"allowed_debuginfo_services":[],"allowed_push_targets":[]},{"release_id":"sattools-6.2@rhel-6.7-eus","short":"sattools","version":"6.2","name":"Red
        Hat Satellite Tools","base_product":"rhel-6.7-eus","active":true,"product_version":"sattools-6","release_type":"ga","compose_set":[],"integrated_with":null,"bugzilla":null,"dist_git":null,"brew":null,"product_pages":null,"errata":null,"sigkey":null,"allow_buildroot_push":true,"allowed_debuginfo_services":[],"allowed_push_targets":[]},{"release_id":"sattools-6.2@rhel-7","short":"sattools","version":"6.2","name":"Red
        Hat Satellite Tools","base_product":"rhel-7","active":true,"product_version":"sattools-6","release_type":"ga","compose_set":[],"integrated_with":null,"bugzilla":null,"dist_git":null,"brew":null,"product_pages":null,"errata":null,"sigkey":null,"allow_buildroot_push":true,"allowed_debuginfo_services":[],"allowed_push_targets":[]},{"release_id":"sattools-6.2@rhel-7.1-eus","short":"sattools","version":"6.2","name":"Red
        Hat Satellite Tools","base_product":"rhel-7.1-eus","active":true,"product_version":"sattools-6","release_type":"ga","compose_set":[],"integrated_with":null,"bugzilla":null,"dist_git":null,"brew":null,"product_pages":null,"errata":null,"sigkey":null,"allow_buildroot_push":true,"allowed_debuginfo_services":[],"allowed_push_targets":[]},{"release_id":"sattools-6.2@rhel-7.2-eus","short":"sattools","version":"6.2","name":"Red
        Hat Satellite Tools","base_product":"rhel-7.2-eus","active":true,"product_version":"sattools-6","release_type":"ga","compose_set":[],"integrated_with":null,"bugzilla":null,"dist_git":null,"brew":null,"product_pages":null,"errata":null,"sigkey":null,"allow_buildroot_push":true,"allowed_debuginfo_services":[],"allowed_push_targets":[]},{"release_id":"supp-7.0@rhel-7","short":"supp","version":"7.0","name":"Supplementary",
        "base_product":"rhel-7","active":true,"product_version":"supp-7","release_type":"ga","compose_set":[],"integrated_with":null,"bugzilla":null,"dist_git":null,"brew":null,"product_pages":null,"errata":null,"sigkey":null,"allow_buildroot_push":true,"allowed_debuginfo_services":[],"allowed_push_targets":[]},{"release_id":"test-1.0","short":"test","version":"1.0","name":"test","base_product":null,"active":true,"product_version":null,
        "release_type":"ga","compose_set":[],"integrated_with":null,"bugzilla":null,"dist_git":null,"brew":null,"product_pages":null,"errata":null,"sigkey":null,"allow_buildroot_push":true,"allowed_debuginfo_services":[],"allowed_push_targets":[]},{"release_id":"test1-1.0","short":"test1","version":"1.0","name":"test1","base_product":null,"active":true,"product_version":null,"release_type":"ga","compose_set":[],"integrated_with":null,"bugzilla":null,"dist_git":null,"brew":null,"product_pages":null,"errata":null,"sigkey":null,"allow_buildroot_push":true,"allowed_debuginfo_services":[],
        "allowed_push_targets":[]},{"release_id":"test2-1.0","short":"test2","version":"1.0","name":"test2","base_product":null,"active":true,"product_version":null,"release_type":"ga","compose_set":[],"integrated_with":null,"bugzilla":null,"dist_git":null,"brew":null,"product_pages":null,"errata":null,"sigkey":null,"allow_buildroot_push":true,"allowed_debuginfo_services":[],"allowed_push_targets":[]},{"release_id":"test3-1.0","short":"test3","version":"1.0","name":"test3","base_product":null,"active":true,"product_version":null,"release_type":"ga","compose_set":[],"integrated_with":null,"bugzilla":null,"dist_git":null,
        "brew":null,"product_pages":null,"errata":null,"sigkey":null,"allow_buildroot_push":true,"allowed_debuginfo_services":[],"allowed_push_targets":[]},{"release_id":"test4-1.0","short":"test4","version":"1.0","name":"test4","base_product":null,"active":true,"product_version":null,"release_type":"ga","compose_set":[],"integrated_with":null,"bugzilla":null,"dist_git":null,"brew":null,"product_pages":null,"errata":null,"sigkey":null,"allow_buildroot_push":true,"allowed_debuginfo_services":[],"allowed_push_targets":[]},{"release_id":"test5-1.0","short":"test5","version":"1.0","name":"test5","base_product":null,"active":true,
        "product_version":null,"release_type":"ga","compose_set":[],"integrated_with":null,"bugzilla":null,"dist_git":null,"brew":null,"product_pages":null,"errata":null,"sigkey":null,"allow_buildroot_push":true,"allowed_debuginfo_services":[],"allowed_push_targets":[]},{"release_id":"test6-1.0","short":"test6","version":"1.0","name":"test6","base_product":null,"active":true,"product_version":null,"release_type":"ga","compose_set":[],"integrated_with":null,"bugzilla":null,"dist_git":null,"brew":null,"product_pages":null,"errata":null,"sigkey":null,"allow_buildroot_push":true,"allowed_debuginfo_services":[],"allowed_push_targets":[]},
        {"release_id":"test7-1.0","short":"test7","version":"1.0","name":"test7","base_product":null,"active":true,"product_version":null,"release_type":"ga","compose_set":[],"integrated_with":null,"bugzilla":null,"dist_git":null,"brew":null,"product_pages":null,"errata":null,"sigkey":null,"allow_buildroot_push":true,"allowed_debuginfo_services":[],"allowed_push_targets":[]}]}'
    http_version: 
  recorded_at: Thu, 31 Dec 2015 14:00:06 GMT
recorded_with: VCR 3.0.3
