---
http_interactions:
- request:
    method: get
    uri: https://example.com/rest_api/v1/releases/?page=2
    body:
      encoding: US-ASCII
      string: ''
    headers:
      Accept:
      - application/json
      Content-Type:
      - application/json
      User-Agent:
      - Faraday v0.9.2
  response:
    status:
      code: 200
      message: 
    headers:
      date:
      - Wed, 27 Jul 2016 04:55:15 GMT
      server:
      - Apache/2.4.6 (Red Hat Enterprise Linux) OpenSSL/1.0.1e-fips mod_auth_kerb/5.4
        mod_wsgi/3.4 Python/2.7.5
      expires:
      - Wed, 27 Jul 2016 04:55:46 GMT
      vary:
      - Accept,Cookie
      last-modified:
      - Thu, 21 Jul 2016 12:24:12 GMT
      allow:
      - GET, POST, PUT, PATCH, HEAD, OPTIONS
      cache-control:
      - max-age=30
      x-frame-options:
      - SAMEORIGIN
      connection:
      - close
      transfer-encoding:
      - chunked
      content-type:
      - application/json
    body:
      encoding: UTF-8
      string: '{"count":54,"next":"https://pdc.host.dev.eng.pek2.redhat.com/rest_api/v1/releases/?page=3","previous":"https://pdc.host.dev.eng.pek2.redhat.com/rest_api/v1/releases/","results":[{"release_id":"rhscl-2.3@rhel-6","short":"rhscl","version":"2.3","name":"Red
        Hat Software Collections","base_product":"rhel-6","active":true,"product_version":"rhscl-1","release_type":"ga","compose_set":[],"integrated_with":null,"bugzilla":null,"dist_git":null,"brew":null,"product_pages":null,"errata":null,"sigkey":null,"allow_buildroot_push":true,"allowed_debuginfo_services":[],"allowed_push_targets":[]},{"release_id":"rt-7.1@rhel-7","short":"rt","version":"7.1","name":"RT","base_product":"rhel-7","active":true,"product_version":"rt-7","release_type":"ga","compose_set":["RHEL-7.1-20150219.1"],"integrated_with":"rhel-7.1","bugzilla":null,"dist_git":null,"brew":null,"product_pages":null,"errata":null,"sigkey":null,"allow_buildroot_push":true,"allowed_debuginfo_services":[],"allowed_push_targets":[]},{"release_id":"sap-2.3@dp-1","short":"sap","version":"2.3","name":"SAP","base_product":"dp-1","active":true,"product_version":"sap-2","release_type":"ga","compose_set":[],"integrated_with":"dp-1.0","bugzilla":null,"dist_git":null,"brew":null,"product_pages":null,"errata":null,"sigkey":null,"allow_buildroot_push":true,"allowed_debuginfo_services":[],"allowed_push_targets":[]},{"release_id":"sap-7.0@rhel-7","short":"sap","version":"7.0","name":"SAP","base_product":"rhel-7","active":true,"product_version":"sap-7","release_type":"ga","compose_set":["RHEL-7.0-20140507.0"],"integrated_with":"rhel-7.0","bugzilla":null,"dist_git":null,"brew":null,"product_pages":null,"errata":null,"sigkey":null,"allow_buildroot_push":true,"allowed_debuginfo_services":[],"allowed_push_targets":[]},{"release_id":"sap-7.0@f-20","short":"sap","version":"7.0","name":"SAP","base_product":"f-20","active":true,"product_version":"sap-7","release_type":"ga","compose_set":["RHEL-7.0-20140507.1"],"integrated_with":"f-20","bugzilla":null,"dist_git":null,"brew":null,"product_pages":null,"errata":null,"sigkey":null,"allow_buildroot_push":true,"allowed_debuginfo_services":[],"allowed_push_targets":[]},{"release_id":"sap-7.1@rhel-7","short":"sap","version":"7.1","name":"SAP","base_product":"rhel-7","active":true,"product_version":"sap-7","release_type":"ga","compose_set":["RHEL-7.1-20140507.2","RHEL-7.1-20140708.n.0","RHEL-7.1-20150219.1"],"integrated_with":"rhel-7.1","bugzilla":null,"dist_git":null,"brew":null,"product_pages":null,"errata":null,"sigkey":null,"allow_buildroot_push":true,"allowed_debuginfo_services":[],"allowed_push_targets":[]},{"release_id":"satellite-6.0.4@rhel-5","short":"satellite","version":"6.0.4","name":"Red
        Hat Satellite","base_product":"rhel-5","active":true,"product_version":"satellite-6.0","release_type":"ga","compose_set":["Satellite-6.0.4-RHEL-5-20140909.0"],"integrated_with":null,"bugzilla":null,"dist_git":null,"brew":null,"product_pages":null,"errata":null,"sigkey":null,"allow_buildroot_push":true,"allowed_debuginfo_services":[],"allowed_push_targets":[]},{"release_id":"satellite-6.0.4@rhel-6","short":"satellite","version":"6.0.4","name":"Red
        Hat Satellite","base_product":"rhel-6","active":true,"product_version":"satellite-6.0","release_type":"ga","compose_set":["Satellite-6.0.4-RHEL-6-20140908.0"],"integrated_with":null,"bugzilla":null,"dist_git":null,"brew":null,"product_pages":null,"errata":null,"sigkey":null,"allow_buildroot_push":true,"allowed_debuginfo_services":[],"allowed_push_targets":[]},{"release_id":"satellite-6.0.4@rhel-7","short":"satellite","version":"6.0.4","name":"Red
        Hat Satellite","base_product":"rhel-7","active":true,"product_version":"satellite-6.0","release_type":"ga","compose_set":["Satellite-6.0.4-RHEL-7-20140908.0"],"integrated_with":null,"bugzilla":null,"dist_git":null,"brew":null,"product_pages":null,"errata":null,"sigkey":null,"allow_buildroot_push":true,"allowed_debuginfo_services":[],"allowed_push_targets":[]},{"release_id":"satellite-6.2@rhel-6","short":"satellite","version":"6.2","name":"Red
        Hat Satellite","base_product":"rhel-6","active":true,"product_version":"satellite-6","release_type":"ga","compose_set":[],"integrated_with":null,"bugzilla":null,"dist_git":null,"brew":null,"product_pages":null,"errata":null,"sigkey":null,"allow_buildroot_push":true,"allowed_debuginfo_services":[],"allowed_push_targets":[]},{"release_id":"satellite-6.2@rhel-7","short":"satellite","version":"6.2","name":"Red
        Hat Satellite","base_product":"rhel-7","active":true,"product_version":"satellite-6","release_type":"ga","compose_set":[],"integrated_with":null,"bugzilla":null,"dist_git":null,"brew":null,"product_pages":null,"errata":null,"sigkey":null,"allow_buildroot_push":true,"allowed_debuginfo_services":[],"allowed_push_targets":[]},{"release_id":"satellite-6.2-updates@rhel-6","short":"satellite","version":"6.2","name":"Red
        Hat Satellite","base_product":"rhel-6","active":true,"product_version":"satellite-6","release_type":"updates","compose_set":[],"integrated_with":null,"bugzilla":null,"dist_git":null,"brew":{"default_target":null,"allowed_tags":["satellite-6.2.0-rhel-6"]},"product_pages":null,"errata":null,"sigkey":null,"allow_buildroot_push":true,"allowed_debuginfo_services":[],"allowed_push_targets":[]},{"release_id":"satellite-6.2-updates@rhel-7","short":"satellite","version":"6.2","name":"Red
        Hat Satellite","base_product":"rhel-7","active":true,"product_version":"satellite-6","release_type":"updates","compose_set":[],"integrated_with":null,"bugzilla":null,"dist_git":null,"brew":{"default_target":null,"allowed_tags":["satellite-6.2.0-rhel-7"]},"product_pages":null,"errata":null,"sigkey":null,"allow_buildroot_push":true,"allowed_debuginfo_services":[],"allowed_push_targets":[]},{"release_id":"sattools-6.2@rhel-6.2-aus","short":"sattools","version":"6.2","name":"Red
        Hat Satellite Tools","base_product":"rhel-6.2-aus","active":true,"product_version":"sattools-6","release_type":"ga","compose_set":[],"integrated_with":null,"bugzilla":null,"dist_git":null,"brew":null,"product_pages":null,"errata":null,"sigkey":null,"allow_buildroot_push":true,"allowed_debuginfo_services":[],"allowed_push_targets":[]},{"release_id":"sattools-6.2@rhel-5","short":"sattools","version":"6.2","name":"Red
        Hat Satellite Tools","base_product":"rhel-5","active":true,"product_version":"sattools-6","release_type":"ga","compose_set":[],"integrated_with":null,"bugzilla":null,"dist_git":null,"brew":null,"product_pages":null,"errata":null,"sigkey":null,"allow_buildroot_push":true,"allowed_debuginfo_services":[],"allowed_push_targets":[]},{"release_id":"sattools-6.2@rhel-5.6-aus","short":"sattools","version":"6.2","name":"Red
        Hat Satellite Tools","base_product":"rhel-5.6-aus","active":true,"product_version":"sattools-6","release_type":"ga","compose_set":[],"integrated_with":null,"bugzilla":null,"dist_git":null,"brew":null,"product_pages":null,"errata":null,"sigkey":null,"allow_buildroot_push":true,"allowed_debuginfo_services":[],"allowed_push_targets":[]},{"release_id":"sattools-6.2@rhel-5.9-aus","short":"sattools","version":"6.2","name":"Red
        Hat Satellite Tools","base_product":"rhel-5.9-aus","active":true,"product_version":"sattools-6","release_type":"ga","compose_set":[],"integrated_with":null,"bugzilla":null,"dist_git":null,"brew":null,"product_pages":null,"errata":null,"sigkey":null,"allow_buildroot_push":true,"allowed_debuginfo_services":[],"allowed_push_targets":[]},{"release_id":"sattools-6.2@rhel-6","short":"sattools","version":"6.2","name":"Red
        Hat Satellite Tools","base_product":"rhel-6","active":true,"product_version":"sattools-6","release_type":"ga","compose_set":[],"integrated_with":null,"bugzilla":null,"dist_git":null,"brew":null,"product_pages":null,"errata":null,"sigkey":null,"allow_buildroot_push":true,"allowed_debuginfo_services":[],"allowed_push_targets":[]},{"release_id":"sattools-6.2@rhel-6.4-aus","short":"sattools","version":"6.2","name":"Red
        Hat Satellite Tools","base_product":"rhel-6.4-aus","active":true,"product_version":"sattools-6","release_type":"ga","compose_set":[],"integrated_with":null,"bugzilla":null,"dist_git":null,"brew":null,"product_pages":null,"errata":null,"sigkey":null,"allow_buildroot_push":true,"allowed_debuginfo_services":[],"allowed_push_targets":[]},{"release_id":"sattools-6.2@rhel-6.5-aus","short":"sattools","version":"6.2","name":"Red
        Hat Satellite Tools","base_product":"rhel-6.5-aus","active":true,"product_version":"sattools-6","release_type":"ga","compose_set":[],"integrated_with":null,"bugzilla":null,"dist_git":null,"brew":null,"product_pages":null,"errata":null,"sigkey":null,"allow_buildroot_push":true,"allowed_debuginfo_services":[],"allowed_push_targets":[]}]}'
    http_version: 
  recorded_at: Thu, 31 Dec 2015 14:00:01 GMT
recorded_with: VCR 3.0.3
