---
http_interactions:
- request:
    method: get
    uri: https://example.com/rest_api/v1/release%2Dvariants/
    body:
      encoding: US-ASCII
      string: ''
    headers:
      Accept:
      - application/json
      Content-Type:
      - application/json
      User-Agent:
      - Faraday v0.9.2
  response:
    status:
      code: 200
      message: 
    headers:
      date:
      - Fri, 01 Sep 2017 01:49:13 GMT
      server:
      - Apache/2.4.6 (Red Hat Enterprise Linux) OpenSSL/1.0.1e-fips mod_auth_kerb/5.4
        mod_wsgi/3.4 Python/2.7.5
      expires:
      - Fri, 01 Sep 2017 01:49:45 GMT
      vary:
      - Accept,Cookie
      last-modified:
      - Thu, 12 Jan 2017 13:54:23 GMT
      allow:
      - GET, POST, PUT, PATCH, DELETE, HEAD, OPTIONS
      cache-control:
      - max-age=30
      x-frame-options:
      - SAMEORIGIN
      transfer-encoding:
      - chunked
      content-type:
      - application/json
    body:
      encoding: UTF-8
      string: '{"count":544,"next":"https://pdc.host.dev.eng.pek2.redhat.com/rest_api/v1/release-variants/?page=2","previous":null,"results":[{"release":"ceph-1.3@rhel-7","id":"Calamari","uid":"Calamari","name":"Calamari","type":"variant","arches":["x86_64"],"variant_version":null,"variant_release":null,"allowed_push_targets":[]},{"release":"ceph-1.3-updates@rhel-7","id":"Calamari","uid":"Calamari","name":"Calamari","type":"variant","arches":["x86_64"],"variant_version":null,"variant_release":null,"allowed_push_targets":[]},{"release":"satellite-6.3@rhel-7","id":"Capsule","uid":"Capsule","name":"Capsule","type":"variant","arches":["x86_64"],"variant_version":null,"variant_release":null,"allowed_push_targets":[]},{"release":"satellite-6.3-updates@rhel-6","id":"Capsule","uid":"Capsule","name":"Capsule","type":"variant","arches":["x86_64"],"variant_version":null,"variant_release":null,"allowed_push_targets":[]},{"release":"satellite-6.0.4@rhel-7","id":"Capsule","uid":"Capsule","name":"Capsule","type":"variant","arches":["x86_64"],"variant_version":null,"variant_release":null,"allowed_push_targets":[]},{"release":"satellite-6.2-updates@rhel-6","id":"Capsule","uid":"Capsule","name":"Capsule","type":"variant","arches":["x86_64"],"variant_version":null,"variant_release":null,"allowed_push_targets":[]},{"release":"satellite-6.2-updates@rhel-7","id":"Capsule","uid":"Capsule","name":"Capsule","type":"variant","arches":["x86_64"],"variant_version":null,"variant_release":null,"allowed_push_targets":[]},{"release":"satellite-6.1.0@rhel-6","id":"Capsule","uid":"Capsule","name":"Capsule","type":"variant","arches":["x86_64"],"variant_version":null,"variant_release":null,"allowed_push_targets":[],"allowed_push_targets":[],"allowed_push_targets":[]},{"release":"satellite-6.2@rhel-7","id":"Capsule","uid":"Capsule","name":"Capsule","type":"variant","arches":["x86_64"],"variant_version":null,"variant_release":null,"allowed_push_targets":[]},{"release":"satellite-6.1.0@rhel-7","id":"Capsule","uid":"Capsule","name":"Capsule","type":"variant","arches":["x86_64"],"variant_version":null,"variant_release":null,"allowed_push_targets":[]},{"release":"satellite-6.2@rhel-6","id":"Capsule","uid":"Capsule","name":"Capsule","type":"variant","arches":["x86_64"],"variant_version":null,"variant_release":null,"allowed_push_targets":[]},{"release":"satellite-6.3@rhel-6","id":"Capsule","uid":"Capsule","name":"Capsule","type":"variant","arches":["x86_64"],"variant_version":null,"variant_release":null,"allowed_push_targets":[]},{"release":"satellite-6.3-updates@rhel-7","id":"Capsule","uid":"Capsule","name":"Capsule","type":"variant","arches":["x86_64"],"variant_version":null,"variant_release":null,"allowed_push_targets":[]},{"release":"satellite-6.0.4@rhel-6","id":"Capsule","uid":"Capsule","name":"Capsule","type":"variant","arches":["x86_64"],"variant_version":null,"variant_release":null,"allowed_push_targets":[]},{"release":"rhel-7.3","id":"Client","uid":"Client","name":"Client","type":"variant","arches":["x86_64"],"variant_version":null,"variant_release":null,"allowed_push_targets":[]},{"release":"rhel-7.1-eus","id":"Client","uid":"Client","name":"Client","type":"variant","arches":["x86_64"],"variant_version":null,"variant_release":null,"allowed_push_targets":[]},{"release":"supp-6.8@rhel-6","id":"Client","uid":"Client","name":"Client","type":"variant","arches":["i386","x86_64"],"variant_version":null,"variant_release":null,"allowed_push_targets":[]},{"release":"rhel-7.1","id":"Client","uid":"Client","name":"Client","type":"variant","arches":["x86_64"],"variant_version":null,"variant_release":null,"allowed_push_targets":[]},{"release":"supp-6.7@rhel-6","id":"Client","uid":"Client","name":"Client","type":"variant","arches":["i386","x86_64"],"variant_version":null,"variant_release":null,"allowed_push_targets":[]},{"release":"rcmtools-1.5@rhel-7","id":"Client","uid":"Client","name":"Client","type":"variant","arches":["x86_64"],"variant_version":null,"variant_release":null,"allowed_push_targets":[]}]}'
    http_version: 
  recorded_at: Fri, 01 Sep 2017 01:49:15 GMT
recorded_with: VCR 3.0.3
