---
http_interactions:
- request:
    method: get
    uri: https://pdc.host.dev.eng.pek2.redhat.com/rest_api/v1/releases/
    body:
      encoding: US-ASCII
      string: ''
    headers:
      Accept:
      - application/json
      Content-Type:
      - application/json
      User-Agent:
      - Faraday v0.9.2
  response:
    status:
      code: 200
      message: 
    headers:
      date:
      - Wed, 27 Jul 2016 06:01:13 GMT
      server:
      - Apache/2.4.6 (Red Hat Enterprise Linux) OpenSSL/1.0.1e-fips mod_auth_kerb/5.4
        mod_wsgi/3.4 Python/2.7.5
      expires:
      - Wed, 27 Jul 2016 06:01:44 GMT
      vary:
      - Accept,Cookie
      last-modified:
      - Thu, 21 Jul 2016 12:24:12 GMT
      allow:
      - GET, POST, PUT, PATCH, HEAD, OPTIONS
      cache-control:
      - max-age=30
      x-frame-options:
      - SAMEORIGIN
      connection:
      - close
      transfer-encoding:
      - chunked
      content-type:
      - application/json
    body:
      encoding: UTF-8
      string: '{"count":54,"next":"https://pdc.host.dev.eng.pek2.redhat.com/rest_api/v1/releases/?page=2","previous":null,"results":[{"release_id":"atomicopenshift-3.2","short":"atomicopenshift","version":"3.2","name":"AtomicOpenShift","base_product":null,"active":true,"product_version":"atomicopenshift-3","release_type":"ga","compose_set":["AtomicOpenShift-3.2-20160519.4","AtomicOpenShift-3.2-20160519.6","AtomicOpenShift-3.2-20160520.3","AtomicOpenShift-3.2-20160520.4","AtomicOpenShift-3.2-20160520.6","AtomicOpenShift-3.2-20160520.7","AtomicOpenShift-3.2-20160530.2"],"integrated_with":null,"bugzilla":null,"dist_git":null,"brew":null,"product_pages":null,"errata":null},{"release_id":"cloudforms-4.1","short":"cloudforms","version":"4.1","name":"CloudForms","base_product":null,"active":true,"product_version":"cloudforms-4","release_type":"ga","compose_set":["CloudForms-4.1-20160520.8","CloudForms-4.1-20160520.9","CloudForms-4.1-20160530.1","CloudForms-4.1-20160530.2"],"integrated_with":null,"bugzilla":null,"dist_git":null,"brew":null,"product_pages":null,"errata":null},{"release_id":"dotnet-1.0@rhel-7","short":"dotnet","version":"1.0","name":"dotNET
        on RHEL","base_product":"rhel-7","active":true,"product_version":"dotnet-1","release_type":"ga","compose_set":["dotNET-1.0-RHEL-7-20160601.0"],"integrated_with":null,"bugzilla":null,"dist_git":null,"brew":null,"product_pages":null,"errata":null},{"release_id":"dp-1.0","short":"dp","version":"1.0","name":"Dummy
        Product","base_product":null,"active":true,"product_version":null,"release_type":"ga","compose_set":[],"integrated_with":null,"bugzilla":null,"dist_git":null,"brew":null,"product_pages":null,"errata":null},{"release_id":"f-20","short":"f","version":"20","name":"Red
        Hat Enterprise Linux","base_product":null,"active":true,"product_version":null,"release_type":"ga","compose_set":["RHEL-7.0-20140507.1"],"integrated_with":null,"bugzilla":null,"dist_git":null,"brew":null,"product_pages":null,"errata":null},{"release_id":"f-25","short":"f","version":"25","name":"Fedora","base_product":null,"active":true,"product_version":null,"release_type":"ga","compose_set":[],"integrated_with":null,"bugzilla":null,"dist_git":null,"brew":null,"product_pages":null,"errata":{"product_version":"production_version_1"}},{"release_id":"f-26","short":"f","version":"26","name":"Fedora","base_product":null,"active":true,"product_version":null,"release_type":"ga","compose_set":[],"integrated_with":null,"bugzilla":null,"dist_git":null,"brew":null,"product_pages":null,"errata":{"product_version":"production_version_1"}},{"release_id":"f-27","short":"f","version":"27","name":"Fedora","base_product":null,"active":true,"product_version":null,"release_type":"ga","compose_set":[],"integrated_with":null,"bugzilla":null,"dist_git":null,"brew":null,"product_pages":null,"errata":{"product_version":"production_version_1"}},{"release_id":"myproduct-2.1","short":"myproduct","version":"2.1","name":"MyProduct","base_product":null,"active":true,"product_version":"myproduct-2","release_type":"ga","compose_set":["MyProduct-2.1-20160519.9","MyProduct-2.1-20160519.10"],"integrated_with":null,"bugzilla":null,"dist_git":null,"brew":null,"product_pages":null,"errata":null},{"release_id":"openstack-9.0@rhel-7","short":"openstack","version":"9.0","name":"OpenStack","base_product":"rhel-7","active":true,"product_version":"openstack-9","release_type":"ga","compose_set":["OpenStack-9.0-RHEL-7-20160530.5"],"integrated_with":null,"bugzilla":null,"dist_git":null,"brew":null,"product_pages":null,"errata":null},{"release_id":"rhel-7.0","short":"rhel","version":"7.0","name":"Red
        Hat Enterprise Linux","base_product":null,"active":true,"product_version":"rhel-7","release_type":"ga","compose_set":["RHEL-7.0-20140507.0"],"integrated_with":null,"bugzilla":null,"dist_git":null,"brew":null,"product_pages":null,"errata":null},{"release_id":"rhel-7.0-updates","short":"rhel","version":"7.0","name":"Red
        Hat Enterprise Linux","base_product":null,"active":true,"product_version":"rhel-7","release_type":"updates","compose_set":["RHEL-7.0-20140507.0"],"integrated_with":null,"bugzilla":null,"dist_git":null,"brew":null,"product_pages":null,"errata":null},{"release_id":"rhel-7.1","short":"rhel","version":"7.1","name":"Red
        Hat Enterprise Linux","base_product":null,"active":true,"product_version":"rhel-7","release_type":"ga","compose_set":["RHEL-7.1-20140507.2","RHEL-7.1-20140708.n.0","RHEL-7.1-20150219.1"],"integrated_with":null,"bugzilla":null,"dist_git":null,"brew":null,"product_pages":null,"errata":null},{"release_id":"rhel-7.1-updates","short":"rhel","version":"7.1","name":"Red
        Hat Enterprise Linux","base_product":null,"active":true,"product_version":"rhel-7","release_type":"updates","compose_set":["RHEL-7.1-20150219.1"],"integrated_with":null,"bugzilla":null,"dist_git":null,"brew":null,"product_pages":null,"errata":null},{"release_id":"rhel-7.1-eus","short":"rhel","version":"7.1","name":"Red
        Hat Enterprise Linux","base_product":null,"active":true,"product_version":"rhel-7","release_type":"eus","compose_set":["RHEL-7.1-20150219.1"],"integrated_with":null,"bugzilla":null,"dist_git":null,"brew":null,"product_pages":null,"errata":null},{"release_id":"rhel-7.2","short":"rhel","version":"7.2","name":"rhel7.2","base_product":null,"active":true,"product_version":null,"release_type":"ga","compose_set":[],"integrated_with":null,"bugzilla":null,"dist_git":null,"brew":null,"product_pages":null,"errata":null},{"release_id":"rhel-le-7.1","short":"rhel-le","version":"7.1","name":"Red
        Hat Enterprise Linux - LE","base_product":null,"active":true,"product_version":"rhel-le-7","release_type":"ga","compose_set":["RHEL-LE-7.1-20150219.1"],"integrated_with":null,"bugzilla":null,"dist_git":null,"brew":null,"product_pages":null,"errata":null},{"release_id":"rhscl-1.2@rhel-6","short":"rhscl","version":"1.2","name":"Red
        Hat Software Collections","base_product":"rhel-6","active":true,"product_version":"rhscl-1","release_type":"ga","compose_set":["RHSCL-1.2-RHEL-6-20140814.0"],"integrated_with":null,"bugzilla":null,"dist_git":null,"brew":null,"product_pages":null,"errata":null},{"release_id":"rhscl-1.2@rhel-7","short":"rhscl","version":"1.2","name":"Red
        Hat Software Collections","base_product":"rhel-7","active":true,"product_version":"rhscl-1","release_type":"ga","compose_set":["RHSCL-1.2-RHEL-7-20140814.0"],"integrated_with":null,"bugzilla":null,"dist_git":null,"brew":null,"product_pages":null,"errata":null},{"release_id":"rhscl-2.2@rhel-6.6-eus","short":"rhscl","version":"2.2","name":"Red
        Hat Software Collections","base_product":"rhel-6.6-eus","active":true,"product_version":"rhscl-2","release_type":"ga","compose_set":[],"integrated_with":null,"bugzilla":null,"dist_git":null,"brew":null,"product_pages":null,"errata":null}]}'
    http_version: 
  recorded_at: Thu, 31 Dec 2015 14:00:00 GMT
- request:
    method: get
    uri: https://pdc.host.dev.eng.pek2.redhat.com/rest_api/v1/global%2Dcomponent%2Dcontacts/
    body:
      encoding: US-ASCII
      string: ''
    headers:
      Accept:
      - application/json
      Content-Type:
      - application/json
      User-Agent:
      - Faraday v0.9.2
  response:
    status:
      code: 200
      message: 
    headers:
      date:
      - Fri, 24 Nov 2017 00:41:54 GMT
      server:
      - Apache/2.4.6 (Red Hat Enterprise Linux) OpenSSL/1.0.1e-fips mod_auth_kerb/5.4
        mod_wsgi/3.4 Python/2.7.5
      expires:
      - Fri, 24 Nov 2017 00:41:57 GMT
      vary:
      - Accept,Cookie
      last-modified:
      - Fri, 24 Nov 2017 00:41:57 GMT
      allow:
      - GET, POST, PUT, PATCH, DELETE, HEAD, OPTIONS
      cache-control:
      - max-age=0
      x-frame-options:
      - SAMEORIGIN
      transfer-encoding:
      - chunked
      content-type:
      - application/json
    body:
      encoding: UTF-8
      string: '{"count":12546,"next":"https://pdc.host.dev.eng.pek2.redhat.com/rest_api/v1/global-component-contacts/?page=2","previous":null,"results":[{"id":1,"component":"389-ds-base","role":"QE_Group","contact":{"id":1,"mail_name":"IdM
        - Red Hat Directory Server","email":"sramling@redhat.com"}},{"id":2,"component":"mozldap","role":"QE_Group","contact":{"id":1,"mail_name":"IdM
        - Red Hat Directory Server","email":"sramling@redhat.com"}},{"id":3,"component":"perl-Mozilla-LDAP","role":"QE_Group","contact":{"id":1,"mail_name":"IdM
        - Red Hat Directory Server","email":"sramling@redhat.com"}},{"id":4,"component":"svrcore","role":"QE_Group","contact":{"id":1,"mail_name":"IdM
        - Red Hat Directory Server","email":"sramling@redhat.com"}},{"id":5,"component":"389-ds-base","role":"QE_Leader","contact":{"id":2,"username":"jgalipea","email":"jgalipea@redhat.com"}},{"id":6,"component":"antlr-maven-plugin","role":"QE_Leader","contact":{"id":2,"username":"jgalipea","email":"jgalipea@redhat.com"}},{"id":7,"component":"args4j","role":"QE_Leader","contact":{"id":2,"username":"jgalipea","email":"jgalipea@redhat.com"}},{"id":8,"component":"bind-dyndb-ldap","role":"QE_Leader","contact":{"id":2,"username":"jgalipea","email":"jgalipea@redhat.com"}},{"id":9,"component":"ccid","role":"QE_Leader","contact":{"id":2,"username":"jgalipea","email":"jgalipea@redhat.com"}},{"id":10,"component":"cdi-api","role":"QE_Leader","contact":{"id":2,"username":"jgalipea","email":"jgalipea@redhat.com"}},{"id":11,"component":"certmonger","role":"QE_Leader","contact":{"id":2,"username":"jgalipea","email":"jgalipea@redhat.com"}},{"id":12,"component":"classworlds","role":"QE_Leader","contact":{"id":2,"username":"jgalipea","email":"jgalipea@redhat.com"}},{"id":13,"component":"codemodel","role":"QE_Leader","contact":{"id":2,"username":"jgalipea","email":"jgalipea@redhat.com"}},{"id":14,"component":"coolkey","role":"QE_Leader","contact":{"id":2,"username":"jgalipea","email":"jgalipea@redhat.com"}},{"id":15,"component":"ding-libs","role":"QE_Leader","contact":{"id":2,"username":"jgalipea","email":"jgalipea@redhat.com"}},{"id":16,"component":"dnsjava","role":"QE_Leader","contact":{"id":2,"username":"jgalipea","email":"jgalipea@redhat.com"}},{"id":17,"component":"esc","role":"QE_Leader","contact":{"id":2,"username":"jgalipea","email":"jgalipea@redhat.com"}},{"id":18,"component":"ifd-egate","role":"QE_Leader","contact":{"id":2,"username":"jgalipea","email":"jgalipea@redhat.com"}},{"id":19,"component":"ipa","role":"QE_Leader","contact":{"id":2,"username":"jgalipea","email":"jgalipea@redhat.com"}},{"id":20,"component":"ipa-client","role":"QE_Leader","contact":{"id":2,"username":"jgalipea","email":"jgalipea@redhat.com"}}]}'
    http_version: 
  recorded_at: Fri, 24 Nov 2017 00:41:57 GMT
recorded_with: VCR 3.0.3
